"name","value"
"about_celestyal","Sobre a Celestyal"
"booking_area","Área de Reservas"
"customer_login","Login do Cliente"
"destinations_select_h3","Escolha um dos nossos destinos disponíveis e veja toda a informação importante"
"destinations_select_map","Selecione no mapa abaixo um dos destinos disponíveis."
"entertaintment","Entretenimento"
"have_you_booked_through_a_travel_agency","Você já fez alguma reserva através de uma agência de viagens?"
"home_page_block1"," Venha para um lugar que deu origem a todo o resto. Um lugar que todos podem chamar de lar. Venha para a Grécia conosco. "
"home_page_block2","UM CRUZEIRO ÚNICO COM DESTINOS ÚNICOS"
"home_page_block2_txt","Veja de perto as jóias do leste do Mediterrâneo nos nossos cruzeiros impecavelmente organizados"
"home_page_block_newsletter","Inscreva-se para receber &lt;h3&gt;NOSSA NEWSLETTER&lt;/h3&gt;"
"home_page_cruise_finder","Encontre cruzeiros saindo da Grécia, Turquia e Chipre"
"home_page_home3","INÚMEROS PRODUTOS DO DUTY FREE"
"home_page_login_txt","Visualize ou altere sua reserva existente"
"page_cruises_idyllic_txt","Disponível para 3 ou 4 dias ou uma combinação de cruzeiros de sete dias. Milos, Syros, Kos, Ios, Bodrum e Cesme"
"photos","Fotos"
"registration_form","Formulário de Inscrição"
"ships_h3","Escolha um dos navios abaixo, descubra suas facilidades e serviços."
