"name","value"
"about_celestyal","Σχετικά με το Celestyal"
"booking_area","Περιοχή κράτησης"
"customer_login","Είσοδος πελάτη"
"destinations_select_h3","Επιλέξτε έναν από τους διαθέσιμους προορισμούς μας και μάθετε όλες τις απαραίτητες πληροφορίες"
"destinations_select_map","Επιλέξτε από τον παρακάτω χάρτη έναν από τους διαθέσιμους προορισμούς."
"entertaintment","Ψυχαγωγία"
"have_you_booked_through_a_travel_agency","Έχετε κάνει κράτηση μέσω ενός ταξιδιωτικού πρακτορείου;"
"home_page_block1"," Επισκεφτείτε έναν τόπο που αποτέλεσε την πηγή δημιουργίας όλων των υπολοίπων. Έναν τόπο που ο καθένας μπορεί να αποκαλέσει σπίτι του. Επισκεφτείτε στην Ελλάδα μαζί μας. "
"home_page_block2","ΜΙΑ ΜΟΝΑΔΙΚΗ ΚΡΟΥΑΖΙΕΡΑ ΜΕ ΜΟΝΑΔΙΚΟΥΣ ΠΡΟΟΡΙΣΜΟΥΣ"
"home_page_block2_txt","Δείτε από κοντά τα κοσμήματα της Ανατολικής Μεσογείου μέσα από τις άψογα οργανωμένες κρουαζιέρες μας"
"home_page_block_newsletter","&lt;h3&gt;OUR NEWSLETTER&lt;/h3&gt;Εγγραφείτε για το"
"home_page_cruise_finder","Βρείτε Κρουαζιέρες από Ελλάδα, Τουρκία και Κύπρος"
"home_page_home3","ΠΟΙΚΙΛΙΑ ΠΡΟΣΦΑΤΩΝ DUTY FREE ΠΡΟΪΟΝΤΩΝ"
"home_page_login_txt","Προβολή ή αλλαγή της υπάρχουσας κράτησής σας"
"page_cruises_idyllic_txt","Διατίθεται για τριήμερη, τετραήμερη ή για συνδυασμό 7ημερης κρουαζιέρας. Μήλος, Σύρος, Κως, Ίος, Αλικαρνασσός και Τσεσμέ"
"photos","Φωτογραφίες"
"registration_form","Φόρμα Εγγραφής"
"ships_h3","Επιλέξτε ένα από τα παρακάτω πλοία και ανακαλύψτε τις παροχές και τις υπηρεσίες που προσφέρουν."
