"first_page_second_info2",", πριν κάνετε κράτηση για κρουαζιέρα. Ειδικές καμπίνες είναι περιορισμένες.",
"3day_shorex_package","3ήμερο πακέτο Shorex",
"4day_shorex_package","4ήμερο πακέτο Shorex",
"metatags_182_title","Κωδικός κατάστασης 404 (Η σελίδα δεν βρέθηκε)",
"7day_shorex_package","7ήμερο πακέτο Shorex",
"cruise_page_h2","8ήμερη ελληνική και τουρκική κρουαζιέρα (7 διανυκτερεύσεις) με το Celestyal Cristal",
"txt_ContactInfo","<P> ΛΕΜΕΣΟΣ: ΛΕΩΦ. ΑΡΧΙΕΠ. ΜΑΚΑΡΙΟΥ ΙΙΙ 180γ - 3027 ΛΕΜΕΣΟΣ /> <br ΤΗΛ: 25 355200 FAX: 25 355210 <br /> </ p>",
"a_group_offer","Προσφορά του Ομίλου για Κρουαζιέρα",
"meeting_convetion","Προσφορά του Ομίλου για Συναντήσεις και Συνέδρια",
"about_us","Σχετικά με εμάς",
"about","Σχετικά με εμάς",
"account","λογαριασμός",
"lbl_accountDepartment","Τμήμα λογαριασμού",
"actions","Δράσεις",
"activate","Ενεργοποίηση",
"activity_type","Τύπος δραστηριότητας",
"add_louis","προσθήκη Louis",
"lbl_address","Διεύθυνση",
"address","Διεύθυνση",
"adult","ενήλικας",
"adult_price_only","Τιμή για ενήλικες",
"adults","ενήλικες",
"cntr_afghanistan","Αφγανιστάν",
"age_of_child","Ηλικία παιδιού",
"agios_nikolaos","Άγιος Νικόλαος",
"cntr_aland_islands","Νησιά Άλαντ    ",
"cntr_albania","Αλβανία",
"albanian","Αλβανός",
"cntr_algeria","Αλγερία",
"algerian","Αλγερινός",
"lbl_allCategories","Όλες οι κατηγορίες",
"all_destinations","Όλοι οι προορισμοί",
"lbl_allDynamicCategories","Όλοι οι βασικοί πίνακες",
"all_inclusive_drink_packages","Όλες τα απεριόριστα πακέτα ποτών",
"lbl_allLists","Όλες οι λίστες",
"lbl_allRegions","Όλες οι περιοχές",
"allResultsSelected","Όλα τα αποτελέσματα έχουν επιλεγεί",
"allusers","Όλοι οι χρήστες",
"all_you_need_to_know","Όλα όσα πρέπει να ξέρετε",
"allow_search","Δυνατότητα αναζήτησης",
"home_already_booked","Έχετε ήδη κάνει κράτηση μιας & lt Cruise & lt",
"already_booked","Έχετε ήδη κάνει κράτηση της κρουαζιέρας σας;",
"search_in_subcategories","αναζήτηση επίσης στις υποκατηγορίες",
"lbl_seeAlso","Επίσης δείτε",
"article_red_header_h2","Επίσης ...",
"alt","Εναλλακτικό Κείμενο",
"amazing_deals","Καταπληκτικές προσφορές",
"american","Αμερικάνος",
"cntr_american_samoa","Αμερικάνικη Σαμόα    ",
"amount","Ποσό",
"amusement_program","Ψυχαγωγικό πρόγραμμα",
"and","και",
"cntr_andorra","Ανδόρα   ",
"andorran","Κάτοικος Ανδόρας",
"cntr_angola","Αγκόλα",
"angolan","Κάτοικος Αγκόλας",
"cntr_anguilla","Ανγκουίλα",
"anniversary_birthday","Επέτειος γενεθλίων",
"cntr_antarctica","Ανταρκτική",
"cntr_antigua_barbuda","Αντίγκουα και Μπαρμπούντα",
"txt_appliedFilters","εφαρμοσμένα φίλτρα",
"apply","Υποβολή αίτησης",
"apply_global_discounts","Υποβολή αίτησης για διεθνείς εκπτώσεις",
"Apr","ΑΠΡΙΛΙΟΣ",
"april","Απρίλιος",
"archive","Αρχείο",
"deleteLanguageConfirm","Είστε βέβαιοι ότι θέλετε να διαγράψετε αυτή τη γλώσσα; Θα διαγραφούν όλες οι παραλλαγές της μετάφρασης, καθώς και το μεταφρασμένο περιεχόμενο.",
"deleteTranslationVariableConfirm","Είστε βέβαιοι ότι θέλετε να διαγράψετε αυτή την παραλλαγή μετάφρασης; Θα διαγραφεί από όλες τις διαθέσιμες γλώσσες",
"cntr_argentina","Αργεντινή",
"argentine","Κάτοικος Αργεντινής",
"cntr_armenia","Αρμενία",
"armenian","Αρμένιος",
"arr_time","Ώρα άφιξης",
"arrive","Άφιξη",
"arriving_at_mykonos_port","Άφιξη στα λιμάνια ελληνικών νησιών",
"arriving_at_istanbul_port","Άφιξη στο λιμάνι της Κωνσταντινούπολης",
"arriving_at_kousadasi_port","Άφιξη στο λιμάνι του Κουσάντασι",
"arriving_at_lavrion_port","Άφιξη στο Λαύριο",
"arriving_at_limassol_port","Άφιξη στο λιμάνι Λεμεσού",
"arriving_at_piraeus_port","Άφιξη στο λιμάνι του Πειραιά",
"cntr_aruba","Αρούμπα",
"cntr_asia_pacific_region","Ασία/Ειρηνικός    ",
"assign_categories","Αντιστοίχιση κατηγοριών",
"athens","Αθήνα",
"lavrio","Αθήνα (Λαύριο)",
"piraeus","Αθήνα (Πειραιάς), Ελλάδα",
"lbl_audienceMember","Μέλος του κοινού",
"lbl_audienceMembers","Μέλη του κοινού",
"august","Αύγουστος",
"cntr_australia","Αυστραλία",
"australian","Αυστραλός",
"cntr_austria","Αυστρία",
"austrian","Αυστριακός",
"availability","Διαθεσιμότητα",
"check_availability","Έλεγχος διαθεσιμότητας",
"available_also","Διαθέσιμο επίσης",
"available_destinations","Διαθέσιμοι προορισμοί",
"available_in","διατίθεται σε",
"availitems","Διαθέσιμα Είδη",
"available_languages","Διαθέσιμες γλώσσες",
"lbl_availableMenus","Διαθέσιμο μενού",
"avail_promo","Διαθέσιμες προσφερόμενες τιμές με βάση τα κριτήρια σας. Παρακαλούμε επιλέξτε",
"available_excursions","Διαθέσιμες εκδρομές",
"excursions_header_title","Διαθέσιμες εκδρομές και διαθέσιμα εκπτωτικά πακέτα προσφορών",
"metatags_component_description","Διαθέσιμες εκδρομές και διαθέσιμα εκπτωτικά πακέτα προσφορών",
"available_excursions_packages","Διαθέσιμα πακέτα προσφορών",
"available_types","διαθέσιμοι τύποι",
"awards","Βραβεία",
"azerbaijan","Αζερμπαϊτζάν",
"cntr_azerbaijan","Αζερμπαϊτζάν",
"back","Επιστροφή",
"step_b","Επιστροφή",
"lbl_backToSite","Επιστροφή στην ιστοσελίδα",
"bahamas","Μπαχάμες",
"cntr_bahamas","Μπαχάμες",
"cntr_bahrain","Μπαχρέιν",
"bahraini","Κάτοικος Μπαχρέιν",
"cntr_bangladesh","Μπαγκλαντές",
"bangladeshi","Κάτοικος Μπαγκλαντές",
"barbados","Μπαρμπάντος",
"cntr_barbados","Μπαρμπάντος",
"bars","Μπαρ",
"bars_n_Lounges","Μπαρ & Σαλόνια",
"cntr_basel","Βασιλεία",
"basicOptions","Βασικές επιλογές",
"basic_settings","Βασικές ρυθμίσεις",
"bed_arrangement","Οργάνωση κρεβατιών",
"before_you_cruise","Πριν την επιβίβαση",
"cntr_belarus","Λευκορωσία",
"belarusian","Λευκορώσος",
"belgian","Βέλγος",
"cntr_belgium","Βέλγιο",
"cntr_belize","Μπελίζ",
"belizean","Κάτοικος Μπελίζ",
"belongsToCategory","Ανήκει στην κατηγορία",
"benin","Μπενίν",
"cntr_benin","Μπενίν",
"cntr_bermuda","Βερμούδες",
"bermudian","Κάτοικος Βερμούδων",
"cntr_bhutan","Μπουτάν",
"birthday","Γενέθλια",
"birthday_on_board","Γενέθλια επί του πλοίου",
"blue_mosque","/ / Το Μπλε Τζαμί",
"board_on_the_ship","Επιβίβαση στο πλοίο",
"boarding_time","Ώρα επιβίβασης",
"bodrum","Μποντρούμ",
"cntr_bolivia","Βολιβία",
"bolivian","Κάτοικος Βολιβίας",
"bon_voyage_gifts","Αναμνηστικά δώρα",
"book_extra","Κράτηση επιπλέον πακέτων και εκδρομών",
"book_now","Κάντε κράτηση τώρα",
"book_now_small","Κάντε κράτηση τώρα",
"book_your_cruise","Κάντε κράτηση της κρουαζιέρας σας",
"book_your_vacation_here","ΚΑΝΤΕ ΚΑΡΤΗΣΗ ΓΙΑ ΤΙΣ ΔΙΑΚΟΠΕΣ ΣΑΣ ΣΕ ΕΜΑΣ",
"booking_conditions","Όροι κράτησης",
"bookmark","Αγαπημένα",
"cntr_bosnia_herzegovina","Βοσνία & Ερζεγοβίνη   ",
"bosnian","Βόσνιος",
"cntr_botswana","Μποτσουάνα",
"cntr_bouvet_island","Νήσος Μπουβέ    ",
"cntr_brazil","Βραζιλία",
"brazilian","Βραζιλιάνος",
"british","Βρετανός",
"cntr_british_indian_ocean_territory","Βρετανικό Έδαφος του Ινδικού Ωκεανού  ",
"brochures","Φυλλάδια",
"metatags_180_title","Φυλλάδια",
"browse","Αναζήτηση",
"cntr_brunei_darussalam","Μπρουνέι Νταρουσαλάμ    ",
"cntr_bulgaria","Βουλγαρία",
"bulgarian","Βούλγαρος",
"burkina_faso","Μπουρκίνα Φάσο",
"cntr_burkina_faso","Μπουρκίνα Φάσο    ",
"cntr_burundi","Μπουρούντι",
"excursions_right_text","Αγοράστε τώρα 2 3 ή περισσότερες εκδρομές σε ένα από τα διαθέσιμα πακέτα και κερδίστε έως και 20% έκπτωση τώρα",
"buy_this_exc_in_a_disc","Αγοράστε αυτή την εκδρομή σε ένα εκπτωτικό πακέτο",
"sidebar_cabin_accomodation","Διαμονή σε καμπίνα που έγινε η κράτηση",
"cabin_facilities","Εγκαταστάσεις καμπίνας",
"cabin_number","Αριθμός καμπίνας",
"metatags_calendar_keywords","ημερολόγιο",
"calendar","Ημερολόγιο",
"cntr_cambodia","Καμπότζη",
"cntr_cameroon_republic_of","Δημοκρατία του Καμερούν  ",
"cameroonian","Κάτοικος Καμερούν",
"cntr_canada","Καναδάς",
"canadian","Καναδός",
"lbl_cancel","Ακύρωση",
"lbl_cancelAll","Ακύρωση όλων",
"cntr_cape_verde","Πράσινο Ακρωτήρι",
"careers","Καριέρα",
"casino","Καζίνο",
"categories","Κατηγορίες",
"category","Κατηγορία",
"error_cat","Απαιτείται κατηγορία",
"cntr_cayman_islands","Νησιά Καϊμάν    ",
"celebrate_in_style","Γιορτάστε με στυλ",
"celebrate_with_us","γιορτάστε μαζί μας",
"company_name","Celestyal Cruises",
"louis_cruises","Celestyal Cruises",
"louis_cruise_ships","Celestyal Cruises",
"cntr_central_african_republic","Κεντροαφρικανική Δημοκρατία   ",
"cntr_cernobbio","Τσερνόμπιο",
"cesme","Τσεσμέ",
"cntr_chad","Τσαντ",
"champagne_breakfast","Πρωινό με Σαμπάνια",
"lbl_changeSettings","Αλλαγή ρυθμίσεων",
"charset","Σετ χαρακτήρων",
"chart_our_ship","Επιβιβαστείτε στα πλοία μας",
"checkbox","Πλαίσιο επιλογής",
"checkout","Σελίδα πληρωμής",
"child","παιδί",
"child_price_only","Τιμή παιδιού μόνο",
"children","παιδιά",
"cntr_chile","Χιλή",
"chilean","Κάτοικος Χιλής",
"cntr_china","Κίνα",
"chinese","Κινέζος",
"chios","Χίος",
"choose","Επιλέξτε",
"choose_product","Επιλέξτε προϊόν",
"cntr_christmas_island_australia","Νήσος των Χριστουγέννων (Αυστραλία)",
"city","Πόλη",
"city_tour","Περιήγηση στην πόλη",
"class_name","Ονομασία κατηγορίας",
"more_photos","κάντε κλικ εδώ για να δείτε περισσότερες φωτογραφίες",
"click_on_head_to_sort","Κάντε κλικ στην κορυφή του πίνακα για την ταξινόμηση των πεδίων",
"click_on_the_decks","Κάντε κλικ στα καταστρώματα Κάτω και δείτε τα διαθέσιμα σχέδια κάθε καταστρώματος και τις καμπίνες ανά κατάστρωμα.",
"click_to_narrow_your_results","Κάντε κλικ για να περιορίσετε τα αποτελέσματα σας",
"close","κοντά",
"lbl_closestAddress","Πλησιέστερη διεύθυνση ",
"cntr_cocos_keeling_islands","Κόκος (Κίλινγκ)   ",
"cntr_colombia","Κολομβία",
"colombian","Κολομβιανός",
"comments","Σχόλια",
"error_comments","Το πεδίο για τα σχόλια είναι υποχρεωτικό",
"comoros","Κομόρες",
"cntr_comoros","Κομόρες",
"conditions_of_carriage","ΟΡΟΙ ΜΕΤΑΦΟΡΑΣ",
"confirm_deletion","Επιβεβαίωση διαγραφής",
"password_confirm","Επιβεβαίωση κωδικού πρόσβασης",
"confirmation","Επικύρωση",
"cntr_congo","Κονγκό",
"cntr_congo_the_democratic_rep","Λαϊκή Δημοκρατία του Κονγκό ",
"congolese","Κονγκό",
"connection","Σύνδεση",
"conectionType","Τύπος σύνδεσης",
"connections","Συνδέσεις",
"contact","Επικοινωνία",
"lbl_audienceDetails","Στοιχεία επικοινωνίας",
"contact_details","Στοιχεία επικοινωνίας - Προσωπικά δεδομένα",
"contact_form","Φόρμα επικοινωνίας",
"contact_us","Επικοινωνήστε μαζί μας",
"lbl_contactUs","Επικοινωνήστε μαζί μας",
"contact_form_comments","Επικοινωνήστε μαζί μας και εμείς θα σας απαντήσουμε το συντομότερο δυνατόν.",
"contacts","Επαφές",
"content","Περιεχόμενο",
"manage_content","Περιεχόμενο",
"content_group","Κατηγορία περιεχομένου",
"content_groups","Κατηγορίες περιεχομένου",
"continue","ΣΥΝΕΧΕΙΑ",
"step_f","ΣΥΝΕΧΕΙΑ",
"cntr_cook_islands","Νησιά Κουκ    ",
"cost","Κόστος",
"cntr_costa_rica","Κόστα Ρίκα    ",
"costa_rican","Κόστα Ρίκα",
"country","Χώρα",
"country_flag","Σημαία χώρας",
"crete","Κρήτη",
"cntr_croatia","Κροατία",
"croatian","Κροάτης",
"cruise","Κρουαζιέρα",
"cruise_calendar","Ημερολόγιο κρουαζιέρα",
"cruise_for","Κρουαζιέρα για",
"cruise_from","Κρουαζιέρα από",
"cruise_page_h3","Κρουαζιέρα από την Αθήνα, Ελλάδα στην Κωνσταντινούπολη, Σμύρνη, Πάτμο, Μύκονο, Ρόδο, Κρήτη",
"cruise_from_cyprus","Κρουαζιέρα από την Κύπρο",
"cruise_from_greece","Κρουαζιέρα από την Ελλάδα",
"cruise_from_turkey","Κρουαζιέρα από την Τουρκία",
"cruise_dream_itinerary","Δρομολόγιο κρουαζιέρας",
"cruise_now","ΚΡΟΥΑΖΙΕΡΑ ΤΩΡΑ",
"cruise_on","Κρουαζιέρα σε",
"itinerary_h5","Μη συμπεριλαμβανομένης της τιμής κρουαζιέρας",
"cruise_rate_includes","Συμπεριλαμβανομένης της τιμής κρουαζιέρας",
"cruise_ships","Κρουαζιερόπλοια",
"metatags_ships_title","Κρουαζιερόπλοια",
"cruise_to","Κρουαζιέρα",
"destinations_main_img_title","Κρουαζιέρα σε 20 προορισμούς για το 2014",
"destinations_header_first","Επιλέξτε την κρουαζιέρα σε 25 προορισμούς της Ανατολικής Μεσογείου με την Louis Cruises",
"metatags_home_keywords","κρουαζιέρα στα ελληνικά νησιά, κρουαζιέρα στη Σαντορίνη, κρουαζιέρα στην Τουρκία, κρουαζιέρα στη Μύκονο, κρουαζιέρες louis, εκδρομές, κρουαζιερόπλοια, προσφορές κρουαζιέρας, κρουαζιέρες με έκπτωση, εμείς το λέμε «καλημέρα», ζήστε τι, κρουαζιέρες από την Ελλάδα",
"cruise_when","Κρουαζιέρα στις",
"when","Κρουαζιέρα στις",
"cruises","Κρουαζιέρες",
"cruises_from","Κρουαζιέρες από",
"metatags_home_title","Κρουαζιέρες από την Αθήνα και την Κωνσταντινούπολη για τα Ελληνικά νησιά και την Τουρκία, Κρουαζιέρες από Κύπρο",," ",,
"excursions_main_img","Πακέτα εκδρομών ξηράς στις κρουαζιέρες",
"cruises_special_offers","Προσφορές κρουαζιέρων",
"metatags_calendar_description","Κρουαζιέρες σε ελληνικά νησιά, Τουρκία και Κύπρος από την Celestyal Cruises.",
"metatags_home_description","Κρουαζιέρες σε ελληνικά νησιά, Τουρκία και Κύπρο από την Celestyal Cruises. Κρουαζιέρα σε Μύκονο, Σαντορίνη, Πάτμο, Ρόδο, Κωνσταντινούπολη, Κουσάντασι και 25 περισσότερους προορισμούς για το 2014"," "
"cruising_from","Εκκίνηση κρουαζιέρας από",
"cntr_cuba","Κούβα",
"cuban","Κάτοικος Κούβας",
"culinary_n_gastronomy","Μαγειρική και Γαστρονομία",
"current_category","Τρέχουσα κατηγορία",
"lbl_currentPosition","Τρέχουσα θέση",
"customer_support","Υποστήριξη Πελατών",
"cypriot","Κύπριος",
"brands_CYPRUS","Κύπρος",
"Cyprus","Κύπρος",
"cntr_cyprus","Κύπρος",
"cntr_czech_republic","Δημοκρατία της Τσεχίας",
"czeck","Τσέχος",
"danish","Δανός",
"data","Δεδομένα",
"data_type","Τύπος δεδομένων",
"date_added","Προσθήκη ημερομηνίας",
"date_of_birth","Ημερομηνία γέννησης",
"dateAdded","Ημερομηνία αποστολής",
"date_to","Ημερομηνία για",
"day","Ημέρα",
"day_n_night_life","Πρωινές και νυχτερινές δραστηριότητες",
"day_cruise","ημέρα κρουαζιέρα",
"days","ΗΜΕΡΕΣ",
"days_cruise_from","ημέρες κρουαζιέρας από",
"days_cruises","7ήμερες Κρουαζιέρες",
"deactivate","Απενεργοποίηση",
"deals_inside","ΠΡΟΣΦΟΡΕΣ",
"payment_text_1","Αγαπητέ πελάτη, το συνολικό ποσό για την κρουαζιέρα μας είναι",
"december","Δεκέμβριος",
"deck","Κατάστρωμα",
"deck_plan_and_staterooms","Σχέδιο καταστρώματος και καμπίνες",
"manage_decks","καταστρώματα",
"defaultLanguage","Προεπιλεγμένη γλώσσα",
"defaultTranslation","Προεπιλεγμένη μετάφραση",
"delete","Διαγραφή",
"lbl_deleteAll","Διαγραφή όλων",
"delete_category","Διαγραφή κατηγορίας",
"delete_feautured","Διαγραφή προτεινόμενου στοιχείου",
"del_lang","Διαγραφή γλώσσας",
"dateSend","Ημερομηνία παράδοσης ",
"delivery_time","Ώρα παράδοσης",
"cntr_denmark","Δανία",
"dep_time","Αναχωρ. Ώρα",
"depart","Αναχώρηση",
"depart_at","Αναχώρηση στις",
"departure","Αναχώρηση",
"departure_date_time","Ημερομηνία Αναχώρησης - Ώρα",
"descending","Φθίνουσα σειρά",
"description","Περιγραφή:",
"destination","Προορισμός",
"destinations","Προορισμοί",
"detailed_images","Λεπτομερείς εικόνες",
"disabled","Άτομα με ειδικές ανάγκες",
"disc_pack","Εκπτωτικά πακέτα",
"discounted_packages","ΕΚΠΤΩΤΙΚΑ ΠΑΚΕΤΑ",
"disembarkation_procedures","Διαδικασίες αποβίβασης",
"cntr_djibouti","Τζιμπουτί",
"lbl_documents","Έγγραφα",
"cntr_dominica","Δομινίκα",
"dominican","Δομινικανή",
"cntr_dominican_republic","Δομινικανή Δημοκρατία    ",
"drink_packages","Πακέτα ποτών",
"dropdown","Αναπτυσσόμενο μενού",
"high_period_desc","Λόγω της υψηλής ζήτησης αυτήν την περίοδο, υπάρχει περιορισμένη (ή μηδενική) διαθεσιμότητα για πολλές από τις κρουαζιέρες μας. Μη διστάσετε να επικοινωνήσετε μαζί μας, αν δεν μπορείτε να βρείτε την κατηγορία καμπίνας ή την αναχώρηση που επιθυμείτε.",
"duration","Διάρκεια",
"metatags_111_title","Κατά τη διάρκεια της κρουαζιέρας σας",
"during_your_cruise","Κατά τη διάρκεια της κρουαζιέρας σας",
"dutch","Ολλανδός",
"commonCategoriesTree","Δενδροειδές διάγραμμα βασικών κατηγοριών",
"email","e-mail",
"early_booking_discounts","Εκπτώσεις έγκαιρης κράτησης",
"east_mediterranean","Ανατολική Μεσόγειος",
"east_mediterranean_destinations","Προορισμοί Ανατολικής Μεσογείου",
"cntr_east_timor","Ανατολικό Τιμόρ    ",
"cntr_ecuador","Ισημερινός",
"ecuadorian","Εκουαδόρ",
"title_EditSettings","Επεξεργασία ρυθμίσεων",
"cntr_egypt","Αίγυπτος",
"egyptian","Αιγύπτιος",
"cntr_eindhoven","Αϊντχόβεν",
"cntr_el_salvador","Ελ Σαλβαδόρ    ",
"el_salvadoran","Ελ Σαλβαδόρ",
"embed","Ενσωμάτωση",
"partners","άδειο",
"empty_cart","Άδειο καλάθι",
"enabled","Ενεργοποίηση",
"endDate","Ημερομηνία λήξης",
"english","Αγγλικά",
"page_thematics_intro","Απολαύστε την πραγματική αυθεντική ελληνική εμπειρία με... ",
"enter","Εισαγωγή",
"enter_your_booking_number","εισάγετε τον αριθμό της κράτησής σας",
"enter_your_email","εισάγετε το email σας",
"enter_your_search","εισάγετε την αναζήτησή σας",
"ephesus","Έφεσος",
"cntr_equatorial_guinea","Ισημερινή Γουινέα",
"cntr_eritrea","Ερυθραία",
"eritrean","Κάτοικος Ερυθραίας",
"errorMessage","Μήνυμα σφάλματος",
"lbl_errorsDetected","Σφάλματα που εντοπίστηκαν",
"estonia","Εσθονία",
"cntr_estonia","Εσθονία",
"cntr_ethiopia","Αιθιοπία",
"ethiopian","Κάτοικος Αιθιοπίας",
"excursion_packages","Πακέτα εκδρομών",
"excursions","Εκδρομές",
"metatags_component_keywords","Εκδρομές",
"excursions_to","Εκδρομές σε",
"expand_all","επέκταση όλων",
"export","Εξαγωγή",
"extra_settings","Πρόσθετες ρυθμίσεις",
"cntr_falkland_islands","Νησιά Φώκλαντ    ",
"cntr_faroe_islands","Νησιά Φερόε    ",
"favorites","Αγαπημένα",
"fax","FAX",
"featuredPages","Επιλεγμένες σελίδες",
"featured_products","Προτεινόμενα προϊόντα",
"featured_product","Προτεινόμενη ιδιότητα",
"february","Φεβρουάριος",
"female","Γυναίκα",
"error_full_name","Το όνομα πεδίου δεν μπορεί να είναι άδειο",
"error_pass","Απαιτείται κωδικός πρόσβασης πεδίου",
"field_type","Τύπος πεδίου",
"cntr_fiji","Φίτζι",
"fijian","Κάτοικος Φίτζι",
"file","Αρχείο",
"file_name","Όνομα αρχείου",
"file_size","Μέγεθος αρχείου",
"file_type","Τύπος αρχείου",
"find_a_louis_cruise","Βρείτε μια κρουαζιέρα της Celestyal Cruise",
"latest_cruises_header_h2","Βρείτε κρουαζιέρες από την Ελλάδα, την Τουρκία και την Κύπρο"," ",,,
"cntr_finland","Φινλανδία",
"finnish","Φινλανδός",
"first","Πρώτο",
"first_name","Πρώτο όνομα",
"flemish","Φλαμανδός",
"floor_plans","Σχεδιαγράμματα ορόφων",
"for","Για",
"for_to","για",
"gia","Για",
"sign_up_text","για το ενημερωτικό δελτίο της Louis Cruises σήμερα! Έχουμε εκπληκτικά πακέτα κρουαζιέρας. Σας εξασφαλίζουμε ότι δεν θα χάσετε καμία σημαντική προσφορά κρουαζιέρας.",
"lost_password","Ξεχάσατε τον κωδικό σας",
"formFields","Πεδία φόρμας",
"cntr_france","Γαλλία",
"free","δωρεάν",
"free_shipping","Δωρεάν αποστολή",
"french","Γάλλος",
"cntr_french_guiana","Γαλλική Γουιάνα    ",
"cntr_french_polynesia","Γαλλική Πολυνησία    ",
"cntr_french_southern_territories","Γαλλικά Νότια Εδάφη",
"from","από",
"front_end_preview","Ολοκληρωμένη προεπισκόπηση",
"sidebar_full_board","Πλήρης διατροφή",
"full_name","Πλήρες όνομα",
"fun_n_entertainment","Διασκέδαση &amp Ψυχαγωγία",
"metatags_109_title","Διασκέδαση &amp Ψυχαγωγία",
"fyr","ΦΕΒΡ.",
"feb","ΦΕΒΡΟΥΑΡΙΟΣ",
"cntr_gabon","Γκαμπόν",
"sidebar_gala_evening","Βραδινά γκαλά και ψυχαγωγικές παραστάσεις επί του πλοίου",
"gallery_options","Επιλογές φωτογραφικού υλικού",
"cntr_gambia","Γκάμπια",
"gender","Φύλο",
"lbl_general","Γενικά",
"cntr_georgia","Γεωργία",
"georgian","Γεωργιανός",
"german","Γερμανός",
"cntr_germany","Γερμανία",
"ghana","Γκάνα",
"cntr_ghana","Γκάνα",
"cntr_gibraltar","Γιβραλτάρ",
"go_on_excursion","Επιλέξτε την εκδρομή σας",
"brands_GREECE","Ελλάδα",
"greec","Ελλάδα",
"Greece","Ελλάδα",
"cntr_greece","Ελλάδα",
"greece_and_greek_islands","Ελλάδα και τα ελληνικά νησιά",
"greek","Έλληνας",
"greek_destinations","Ελληνικοί προορισμοί",
"metatags_content_title","Ελληνική φιλοξενία",
"metatags_96_title","Ελληνική φιλοξενία",
"greek_hospitality","Ελληνική φιλοξενία επί του πλοίου",
"metatags_calendar_title","Ημερολόγιο κρουαζιέρας στα ελληνικά νησιά και την Τουρκία για το 2013",
"cntr_greenland","Γροιλανδία",
"cntr_grenada","Γρενάδα",
"grenadian","Κάτοικος Γρενάδας",
"lbl_group","Κατηγορία",
"groupitems","Είδη κατηγορίας",
"group_offer","Προσφορά κατηγορίας",
"groups","Κατηγορίες",
"cntr_guadeloupe","Γουαδελούπη",
"cntr_guam","Γκουάμ",
"cntr_guatemala","Γουατεμάλα",
"guatemalan","Κάτοικος Γουατεμάλας",
"cntr_guernsey","Γκέρνσεϊ",
"guinea","Γουινέα",
"cntr_guinea","Γουινέα",
"cntr_guinea_bissau","Γουινέα-Μπισάου",
"cntr_guyana","Γουιάνα",
"hagia_sophia","Αγία Σοφία",
"cntr_hague","ΧΑΓΗ",
"hairdressing_n_styling","Κομμωτική &amp Στάϊλινγκ",
"haiti","Αϊτή",
"cntr_haiti","Αϊτή",
"haitian","Κάτοικος Αϊτής",
"cntr_heard_and_mcdonald_islands","Χερντ και Μακντόναλντ  ",
"help_desk","Κέντρο εξυπηρέτησης",
"heraklion","Ηράκλειο",
"heraklion_crete","Ηράκλειο, Κρήτη",
"here","εδώ",
"highlights","Στιγμιότυπα",
"history","Ιστορικό",
"holiday_packages","Πακέτα διακοπών",
"home","Αρχική",
"homepagecat","Αρχική Σελίδα (κατηγορία 0)",
"honduran","Κάτοικος Ονδούρας",
"cntr_honduras_inc_swan_island","Ονδούρα (συμπ. Νήσου Σουάν)",
"honeymoon_package","Πακέτο για το μήνα του μέλιτος",
"hong_kong","Χονγκ Κονγκ",
"cntr_hong_kong","Χονγκ Κονγκ    ",
"first_form_h3","Πόσα άτομα θα ταξιδεύουν σε αυτήν την καμπίνα;",
"how_to_book","ΠΩΣ ΝΑ ΚΑΝΕΤΕ ΚΡΑΤΗΣΗ",
"reach_the_ports","Πώς να φτάσετε στο λιμάνι",
"metatags_171_title","Πώς να φτάσετε στο λιμάνι",
"hungarian","Ουγγαρέζος",
"cntr_hungary","Ουγγαρία",
"hungerian","Ουγγαρέζος",
"isaid","Δήλωσα",
"i_want","Θέλω",
"i_want_an_offer","Θέλω μια προσφορά",
"lbl_iWantToAskThe","Θέλω να ρωτήσω το",
"cntr_iceland","Ισλανδία",
"icelander","Ισλανδός",
"first_page_second_info","Αν είστε ένα άτομο με ειδικές ανάγκες, ανατρέξτε στην ενότητα μας «Πριν την κρουαζιέρα»-& gt"," ",,,
"payment_text_3","Αν επιλέξετε να καταβάλλετε μια προκαταβολή, θα πρέπει να καταβάλετε το υπόλοιπο ποσό μέχρι",
"payment_text_4","Αν θέλετε να καταβάλλετε ως προκαταβολή ένα ποσό μεγαλύτερο από",
"image","Εικόνα",
"important_notes","Σημαντικές σημειώσεις",
"in_seven_day_cruise","σε 7ήμερη κρουαζιέρα",
"inactive","Ανενεργό",
"cntr_india","Ινδία",
"indian","Ινδός",
"cntr_indonesia","Ινδονησία",
"indonesian","Κάτοικος Ινδονησίας",
"info","Πληροφορίες",
"suite_inside","Εσωτερικές καμπίνες",
"inside_category_stateroom","Κατηγορία εσωτερικής καμπίνας",
"international","διεθνές",
"error_invalidCreditCard","Μη έγκυρος αριθμός πιστωτικής κάρτας",
"error_invalidDate","Μη έγκυρη μορφή ημερομηνίας",
"error_invalidNumber","Μη έγκυρος αριθμός",
"error_invalidURL","Μη έγκυρη διεύθυνση URL",
"ios","Ίος",
"cntr_iran","Ιράν",
"iranian","Ιρανός",
"iraq","Ιράκ",
"cntr_iraq","Ιράκ",
"cntr_ireland","Ιρλανδία",
"irish","Ιρλανδός",
"is","είναι",
"isMap","είναι ένας χάρτης",
"is_required","Απαιτείται",
"cntr_isle_of_man","Νήσος του Μαν   ",
"cntr_israel","Ισραήλ",
"israeli","Ισραηλινός",
"istanbul","Κωνσταντινούπολη",
"italian","Ιταλικά",
"cntr_italy","Ιταλία",
"brands_ITALY","Ιταλία",
"italy","Ιταλία",
"cote_divoire","Ακτή Ελεφαντοστού",
"cntr_cote_divoire","Ακτή Ελεφαντοστού",
"cntr_jamaica","Τζαμάικα",
"jamaican","Τζαμαϊκανός",
"jan","ΙΑΝ",
"january","Ιανουάριος",
"cntr_japan","Ιαπωνία",
"japanese","Ιάπωνας",
"cntr_jersey","Τζέρζι",
"cntr_jordan","Ιορδανία",
"jordanian","Ιορδανός",
"july","Ιούλιος",
"june","Ιούνιος",
"just_pick_a","Απλά διαλέξτε ένα",
"html_SiteTitleMoto"," Εμείς σας λέμε «Καλημέρα!». Εσείς τη ζείτε.",
"cntr_kalutara","Καλουτάρα",
"cntr_kazakhstan","Καζακστάν",
"kazakhstani","Κάτοικος Καζακστάν",
"cntr_kenya","Κένυα",
"kenyan","Κάτοικος Κένυας",
"kids","Παιδιά",
"cntr_kiribati","Κιριμπάτι",
"jhg","kjhg",
"knossos_palace","Παλάτι της Κνωσού",
"cntr_korea_dem_peoples_repub","Λαϊκή Δημοκρατία της Κορέας Δημοκρατία της Κορέας ",
"cntr_korea_republic_of","  ",
"korean","Κάτοικος Κορέας",
"kos","Κως",
"cntr_kuwait","Κουβέιτ",
"kuwaiti","Κάτοικος Κουβέιτ",
"kyrgyzstan","Κιργιστάν",
"cntr_kyrgyzstan","Κιργιστάν ",
"language","Γλώσσα",
"languages","Γλώσσες",
"cntr_lao_peoples_democratic_re","Λαϊκή Δημοκρατία του Λάος  ",
"last","Τελευταία",
"last_name","Επώνυμο",
"error_lastname","Το Επώνυμο είναι υποχρεωτικό",
"last_visit","Πρόσφατη επίσκεψη",
"last_week","περασμένη εβδομάδα",
"latest","Πρόσφατα",
"latest_content","Πρόσφατο περιεχόμενο",
"latest_news","Τελευταία νέα",
"latest_products","Τελευταία προϊόντα",
"lbl_latestProperties","Τελευταίες ιδιότητες",
"cntr_latvia","Λετονία",
"latvian","Κάτοικος Λετονίας",
"learnmore","Μάθετε περισσότερα",
"lebanese","Λιβανέζος",
"cntr_lebanon","Λίβανος",
"lesotho","Λεσόθο",
"cntr_lesotho","Λεσόθο",
"cntr_liberia","Λιβερία",
"liberian","Κάτοικος Λιβερίας",
"cntr_libya","Λιβύη",
"libyan","Κάτοικος Λιβύης",
"cntr_liechtenstein","Λιχτενστάιν",
"liechtensteiner","Κάτοικος Λιχτενστάιν",
"LifeOnBoard","Η ζωή στο πλοίο",
"lbl_seoTitle","Τίτλος σύνδεσης (για χρήση μηχανών αναζήτησης)",
"list_view","Προβολή λίστας",
"listings","Καταχωρήσεις",
"lbl_lists","Λίστες",
"cntr_lithuania","Λιθουανία",
"lithuanian","Λιθουανός",
"loading_cabins","Αναμονή φόρτωσης για καμπίνες",
"loading_categories","Αναμονή φόρτωση για κατηγορίες",
"loading_cruise_prices","Αναμονή φόρτωσης για τιμές και προσφορές κρουαζιέρας",
"loading_personal_data","Αναμονή φόρτωσης για φόρμα προσωπικών δεδομένων",
"loading_last_step","αναμονή φόρτωσης για το τελευταίο βήμα",
"localinfo","Τοπικές πληροφορίες",
"location","Τοποθεσία",
"loc_image","Εικόνα τοποθεσίας",
"loc_name","Όνομα τοποθεσίας",
"locations","Τοποθεσίες",
"home_block_7_span","Συνδεθείτε στον ασφαλή εξυπηρετητή μας για να δείτε ή να αλλάξετε την υπάρχουσα κράτησή σας",
"loged_in_as","Σύνδεση ως",
"home_login","ΣΥΝΔΕΣΗ",
"payment_successful1","Συνδεθείτε εδώ με το παρεχόμενο email και τον αριθμό της κράτησής σας. Θα δείτε όλες τις πληροφορίες σχετικά με την κράτησή σας και θα είστε σε θέση να προσθέσετε επιπλέον υπηρεσίες ή εκδρομές",
"logo","Λογότυπο",
"logout","Αποσύνδεση",
"long_desc","Μακροσκελής περιγραφή",
"look_for_deals","Αναζήτηση προσφορών",
"looking_for","Αναζήτηση για",
"louis_cashless_system","Σύστημα χωρίς μετρητά της Louis",
"home_excursion_text","Η Louis Cruises δημιούργησε νέα πακέτα εκδρομών ξηράς για όλες τις κρουαζιέρες και όλους τους προορισμούς για το 2013. Μπορείτε να αγοράσετε τώρα εκδρομές που θέλετε και να κερδίσετε έως και 20% έκπτωση Διαβάστε περισσότερα",
"ships_red_header","Πλήρης στόλος της Louis Cruises",
"latest_cruises_header_p","Η Louis Cruises επισκέπτεται 22 προορισμούς το 2014! Χρησιμοποιήστε το σύστημα εύρεσης κρουαζιερόπλοιου και κάντε κράτησης για την επόμενη κρουαζιέρα σας ONLINE με την online εφαρμογή κράτησης κρουαζιέρας. ",
"louis_group","Όμιλος Louis",
"louis_headquarters_phones","Τηλέφωνα έδρας της Louis",
"louis_hotels","Ξενοδοχεία Louis",
"cntr_louis_house","Γραφεία της Louis ",
"press_area","Χώρος ηλεκτρονικών λήψεων και νέων της Louis",
"ships_main_img_title","Πλοία της Louis γύρω από τη Μεσόγειο",
"louis_travel","Louis Travel",
"low_limit_in_stock","Χαμηλό όριο στο απόθεμα",
"cntr_luxembourg","Λουξεμβούργο",
"luxembourger","Κάτοικος Λουξεμβούργου",
"cntr_macau","Μακάο",
"cntr_macedonia_former_yugosla","Μακεδονία, Πρώην Γιουγκοσλαβική Δημοκρατία  ",
"cntr_madagascar","Μαδαγασκάρη",
"madagascar","Κάτοικος Μαγαδασκάρης",
"main_image","Κύρια εικόνα",
"cntr_malaga","Μάλαγα",
"cntr_malawi","Μαλάουι",
"cntr_malaysia","Μαλαισία",
"malaysian","Κάτοικος Μαλαισίας",
"maldives","Μαλδίβες",
"cntr_maldives","Μαλδίβες",
"male","Άντρας",
"mali","Μάλι",
"cntr_mali","Μάλι",
"cntr_malta","Μάλτα",
"maltese","Κάτοικος Μάλτας",
"lbl_manageLists","Διαχείριση λιστών",
"manage_users","Διαχείριση χρηστών",
"municipality","Κατασκευαστής",
"manufacturer_logo","Λογότυπο κατασκευαστή",
"municipalities","Κατασκευαστές",
"lbl_map","Χάρτης",
"map","χάρτης",
"maps","Χάρτες",
"mar","Μάρτιος",
"march","Μάρτιος",
"markup","Σήμανση",
"maroccian","Μαροκινός",
"marseille","Μασσαλία",
"cntr_marshall_islands","Νησιά Μάρσαλ    ",
"cntr_martinique","Μαρτινίκα",
"mass_insert_products","Προϊόντα μαζικής εισαγωγής",
"cntr_mauritania","Μαυριτανία",
"mauritian","Μαυριτανός",
"mauritius","Μαυρίκιος",
"cntr_mauritius","Κάτοικος Μαυρίκιου",
"max_price","Μέγιστη τιμή",
"may","Μάιος",
"cntr_mayotte","Μαγιότ",
"media","Αρχεία μέσων",
"mediaFiles","Αρχεία μέσων",
"membership","Η ιδιότητα του μέλους",
"lbl_menuEditor","Επεξεργασία μενού",
"menuEditor","Επεξεργασία μενού",
"message","Μήνυμα",
"msg_smsSendSuccess","Το μήνυμα παραδόθηκε",
"msg_testSmsMessage","Μήνυμα ελήφθη",
"metatags_content_description","meta_content_description",
"metatags_content_keywords","meta_content_keywords",
"mexican","Μεξικανός",
"cntr_mexico","Μεξικό",
"cntr_mexico_city","Πόλη του Μεξικό",
"cntr_micronesia","Μικρονησία",
"milos","Μήλος",
"min_price","Ελάχιστη τιμή",
"minimum_order_quantity","Ελάχιστη ποσότητα παραγγελίας",
"lbl_mobileNumber","Κινητό",
"lbl_errorMobileOrEmailRequired","Αριθμός κινητού ή απαιτούμενη διεύθυνση ηλεκτρονικού ταχυδρομείου",
"modify","Τροποποίηση",
"module","Ενότητα",
"cntr_moldova","Μολδαβία",
"moldovan","Μολδαβός",
"moments_of_life","Στιγμές ζωής",
"metatags_97_title","Στιγμές ζωής",
"monacan","Κάτοικος Μονακό",
"cntr_monaco","Μονακό",
"cntr_mongolia","Μογγολία",
"cntr_montenegro","Μαυροβούνιο",
"months_of_departure","Μήνες αναχώρησης",
"cntr_montserrat","Μονσεράτ",
"more","Περισσότερα",
"moreCategories","Περισσότερες κατηγορίες",
"lbl_moreInCategory","Περισσότερα σε αυτή την κατηγορία",
"lbl_more_info","Περισσότερες πληροφορίες",
"more_info_and_prices","Περισσότερες πληροφορίες και τιμές",
"more_news","περισσότερα νέα",
"more_shows","Περισσότερα ραδιοφωνικά σόου",
"cntr_morocco","Μαρόκο",
"mozambican","Κάτοικος Μοζαμβίκης",
"cntr_mozambique","Μοζαμβίκη",
"multiselect","Επιλογή πολλαπλών πεδίων",
"lbl_myAccount","Ο λογαριασμός μου",
"lbl_myEmail","Το email μου",
"lbl_myOrders","Οι παραγγελίες μου",
"lbl_myQuestion","Η ερώτησή μου",
"myanmar","Μιανμάρ",
"cntr_myanmar_union_of","Ένωση του Μιανμάρ   ",
"mykonos","Μύκονος",
"name","Όνομα",
"error_firstname","Το πεδίο ονόματος είναι υποχρεωτικό",
"error_name","Το πεδίο ονόματος είναι υποχρεωτικό",
"name_required","Το όνομα είναι υποχρεωτικό",
"namibia","Ναμίμπια",
"cntr_namibia","Ναμίμπια",
"national","εθνικός",
"nationality","Ιθαγένεια",
"cntr_nauru","Ναουρού",
"nepal","Νεπάλ",
"cntr_nepal","Νεπάλ",
"cntr_netherlands","Ολλανδία",
"cntr_netherlands_antilles","Ολλανδικές Αντίλλες",
"cntr_neutral_zone_s_arabia_ir","Ουδέτερη Ζώνη (Σαουδική-ιρακινή ουδέτερη ζώνη)",
"cntr_new_caledonia","Νέα Καληδονία",
"home_block_5_h6","Νέα πακέτα εκδρομών",
"newgroup","Νέα ομάδα",
"newThumbSaved","Αποθήκευση νέας εικόνας",
"newLanguageAdded","Προσθήκη νέας γλώσσας. Θα μεταφερθείτε στη σελίδα παραλλαγής μετάφρασης της συγκεκριμένης γλώσσας.",
"newroom","Νέο δωμάτιο",
"addRoute","Νέο δρομολόγιο",
"home_new_to_cruising","Κρουαζιέρα για πρώτη φορά",
"new_to_cruising","Κάνετε κρουαζιέρα για πρώτη φορά; ΜΑΘΕΤΕ ΠΕΡΙΣΣΟΤΕΡΑ",
"addTransaction","Νέα συναλλαγή",
"cntr_new_zealand","Νέα Ζηλανδία  ",
"new_zealander","Νεοζηλανδός",
"news","Νέα",
"home_news","Νέα",
"metatags_181_title","Νέα",
"newsletter","Ενημερωτικό δελτίο",
"next","Επόμενο",
"next_months","επόμενοι μήνες",
"cntr_nicaragua","Νικαράγουα",
"nicaraguan","Νικαράγουα",
"cntr_niger","Νίγηρας",
"cntr_nigeria","Νιγηρία",
"nigerian","Νιγηριανός",
"night_clubbing","Βραδινό κλάμπινγκ",
"cntr_niue","Νιούε",
"no","Αρ.",
"noBrand","Αρ. επωνυμίας",
"txt_no_categories","Δεν βρέθηκαν κατηγορίες",
"nocomments","Δεν βρέθηκαν σχόλια.",
"txt_no_products","Δεν βρέθηκαν προϊόντα",
"no_thanks","Όχι, ευχαριστώ",
"no_video","Δεν βρέθηκαν βίντεο",
"noneSelected","Καμία επιλογή",
"cntr_norfolk_island","Νησί Νόρφολκ    ",
"cntr_northern_mariana_islands","Νησιά Βόρειας Μαριάνας   ",
"cntr_norway","Νορβηγία",
"norwegian","Νορβηγός",
"nothingSelected","Δεν έγινε καμία επιλογή",
"cntr_nottingham","Νότιγχαμ",
"november","Νοέμβριος",
"NowEditing","Επεξεργασία τώρα",
"numberOfElements","Αριθμός στοιχείων",
"october","Οκτώβριος",
"oia","Οία",
"oman","Ομάν",
"cntr_oman","Ομάν",
"on_bridge","σε",
"on_board_shopping","Αγορές επί του πλοίου",
"disc_has_been_detucted","Από την παραπάνω τιμή, έχει ήδη αφαιρεθεί η έκπτωση (μόνο από την τιμή της κρουαζιέρας, δεδομένου ότι δεν ισχύει για ",
"promotion_text_1","Από την παραπάνω τιμή η έκπτωση έχει ήδη αφαιρεθεί (μόνο από την τιμή της κρουαζιέρας, δεδομένου ότι δεν ισχύει για τα λιμενικά τέλη ή οποιεσδήποτε άλλες επιβαρύνσεις).",
"on_duran","Ονδούρα",
"only","μόνο",
"only_one_left","μόνο 1 αριστερά",
"only_two_left","μόνο 2 αριστερά",
"only for","μόνο για",
"only_for","μόνο για",
"error_numbersOnly","Επιτρέπονται μόνο αριθμοί",
"optional","Προαιρετικά",
"options","Επιλογές",
"or","ή",
"payment_text_5","ή αν θέλετε να κάνετε μια πλήρη πληρωμή, πληκτρολογήστε τώρα στο κουτάκι με ένα ποσό από",
"or_see_all_dates","ή δείτε όλες τις ημερομηνίες",
"or_see_all_destinations","ή δείτε όλους τους προορισμούς",
"home_excursion_text_or","ή επισκεφθείτε τα πακέτα εκδρομών ξηράς μας",
"lbl_order","Παραγγελία",
"order_by","Παραγγελία κατά",
"orders","Παραγγελίες",
"ordersAmountSum","Συνολικές παραγγελίες",
"originator","Εντολέας",
"excursions_available","Άλλες διαθέσιμες εκδρομές ξηράς",
"other_excursions_to","Άλλες εκδρομές σε",
"first_page_info","Οι καμπίνες μας μπορούν να φιλοξενήσουν μέχρι 4 άτομα. Σε περίπτωση που χρειάζεστε καμπίνα για περισσότερα από 4 άτομα, παρακαλούμε επικοινωνήστε με το Τμήμα Εξυπηρέτησης Επιβατών της Louis για βοήθεια",
"our_company","Η Εταιρεία μας",
"our_newsletter","Το Ενημερωτικό Δελτίο μας",
"suite_outside","Εξωτερικές καμπίνες",
"outsise_category_stateroom","Κατηγορία εξωτερικής καμπίνας",
"cntr_pakistan","Πακιστάν",
"pakistani","Πακιστανός",
"cntr_palau","Παλάου",
"palestinian","Παλαιστίνιος",
"cntr_palma_de_mallorca","Πάλμα Ντε Μαγιόρκα",
"cntr_panama","Παναμάς",
"panamanian","Κάτοικος Παναμά",
"panoramic_images","Πανοραμικές εικόνες",
"papua_new_guinea","Παπούα Νέα Γουινέα",
"cntr_papua_new_guinea","Παπούα Νέα Γουινέα   ",
"cntr_paraguay","Παραγουάη",
"paraguayan","Κάτοικος Παραγουάης",
"passenger","Επιβάτης",
"passenger_type","Τύπος επιβάτη",
"passport_expires","Το διαβατήριο λήγει",
"passport_no","Αρ. διαβατηρίου",
"passport_required","Δεν απαιτείται διαβατήριο",
"password","Κωδικός",
"lbl_pastProjects","Προηγούμενα έργα",
"patmos","Πάτμος",
"pattern","Σχέδιο",
"payment","Πληρωμή",
"payment_info","Πληροφορίες πληρωμής",
"payment_method","Μέθοδος πληρωμής",
"payment_methods","Μέθοδοι πληρωμής",
"payment_status","Κατάσταση πληρωμής",
"per_day","ανά ημέρα",
"per_person_per_cruise","ανά άτομο και ανά κρουαζιέρα",
"per_stateroom","ανά καμπίνα",
"period","Περίοδος",
"permalink","Μόνιμος σύνδεσμος",
"persons","Άτομα",
"cntr_peru","Περού",
"peruvian","Κάτοικος Περού",
"cntr_philippines","Φιλιππίνες",
"philippino","Κάτοικος Φιλιππίνων",
"photo_cabins","Οι παραπάνω φωτογραφίες είναι ενδεικτικές. Τα σχεδιαγράμματα καμπινών δίνονται καθαρά για λόγους καθοδήγησης. Το μέγεθος και η διαρρύθμιση μπορεί να διαφέρει στην ίδια κατηγορία.",
"cntr_pitcairn","Νήσοι Πίτκαιρν ",
"lbl_placeOnMap","Τοποθεσία στο χάρτη",
"plan_your_cruise","Σχεδιάστε την κρουαζιέρα σας",
"terms_msg","Παρακαλώ κάντε κλικ στο σύνδεσμο της χώρας στην οποία αγοράσατε το εισιτήριό σας για να διαβάσετε τους όρους μεταφοράς που ισχύουν για το ταξίδι σας",
"select_your_type","Επιλέξτε τον τύπο σας",
"book_contact_msg","Παρακαλούμε πληκτρολογήστε όλες τις απαραίτητες πληροφορίες με λατινικούς χαρακτήρες",
"please_wait","Παρακαλώ περιμένετε",
"cntr_poland","Πολωνία",
"polish","Πολωνός",
"sidebar_port_charges","Λιμενικά τέλη",
"Port_Charges","Λιμενικές επιβαρύνσεις",
"port_of_departure","Λιμάνι αναχώρησης",
"TAXES","Λιμενικοί φόροι",
"port_city","Λιμάνι/Πόλη",
"ports_of_departure","Λιμάνια αναχώρησης",
"metatags_ports_description","portsd_meta_description",
"metatags_ports_keywords","portsd_meta_keywords",
"cntr_portugal","Πορτογαλία",
"portuguese","Πορτογάλος",
"portuguse","Πορτογάλος",
"posts","Δημοσιεύσεις",
"preview","Προεπισκόπηση",
"previous","Προηγούμενη",
"previous_months","προηγούμενοι μήνες",
"price","Τιμή",
"priceRange","Εύρος Τιμών",
"calendar_btm_msg1","Η ενδεικνυόμενη ανωτέρω τιμή είναι",
"promotion_text_2","Η ενδεικνυόμενη ανωτέρω τιμή είναι",
"prices","τιμές",
"prices_include_surcharges","οι τιμές περιλαμβάνουν",
"prices_not_include_surcharges","Οι τιμές δεν περιλαμβάνουν πρόσθετες επιβαρύνσεις",
"promotion_text","Οι παραπάνω ενδεικνυόμενες τιμές είναι ανά άτομο, ανά κρουαζιέρα δύο ατόμων και περιλαμβάνουν λιμενικά τέλη. ",
"calendar_btm_msg","Οι παραπάνω ενδεικνυόμενες τιμές είναι ανά άτομο, ανά κρουαζιέρα δύο ατόμων και περιλαμβάνουν λιμενικά τέλη.Από την παραπάνω τιμή η έκπτωση έχει ήδη αφαιρεθεί (μόνο από την τιμή της κρουαζιέρας, δεδομένου ότι δεν ισχύει για τα λιμενικά τέλη ή οποιεσδήποτε άλλες επιβαρύνσεις).",
"prices_start_from","Οι τιμές ξεκινούν από",
"prices_starting_from","Οι τιμές αρχίζουν από",
"privacy_policy","Πολιτική Προστασίας Προσωπικών Δεδομένων",
"product","Προϊόν",
"productid","Κωδικός προϊόντος",
"products","Προϊόντα",
"professional_photo_gallery","Επαγγελματικό φωτογραφείο",
"metatags_172_title","Επαγγελματικό φωτογραφείο",
"professional_photos","Επαγγελματικές φωτογραφίες",
"lbl_propertyInformation","Πληροφορίες ιδιοτήτων",
"provider","Πάροχος",
"publish","Δημοσίευση",
"puerto_rican","Πουέρτο Ρίκο",
"cntr_puerto_rico","Πουέρτο Ρίκο    ",
"cntr_qatar","Κατάρ",
"qatari","Κάτοικος Κατάρ",
"quantity_in_stock","Ποσότητα σε απόθεμα",
"cntr_rabat","Ραμπάτ",
"iconic","Παραδοσιακοί προορισμοί",
"find_cruises","Βρείτε Κρουαζιέρες από Ελλάδα, Τουρκία και Κύπρος",
"on_board","Η ζωή στο πλοίο",
"idyllic","Παραδεισένιοι προορισμοί",
"featured","Χαρακτηριστικά",
"dest_page_h3","Επιλέξτε έναν από τους διαθέσιμους προορισμούς μας και μάθετε όλες τις απαραίτητες πληροφορίες",
"special_services","Ειδικές Υπηρεσίες      ",
"media","Μέσα",
"exc_filter_title","ΨΑΧΝΕΤΕ ΚΑΤΙ ΣΥΓΚΕΚΡΙΜΕΝΟ;",
"book_now_bottom_txt","1 Οι καμπίνες μας μπορούν να φιλοξενήσουν μέχρι 4 άτομα. Σε περίπτωση που χρειάζεστε μια καμπίνα για περισσότερα από 4 άτομα, παρακαλούμε επικοινωνήστε με το Τμήμα Εξυπηρέτησης Επιβατών της Louis για βοήθεια.
2 Αν είστε ένα άτομο με ειδικές ανάγκες, ανατρέξτε την ενότητα μας: Πριν την Κρουαζιέρα-> Ειδικές ανάγκες και Ιατρικά θέματα, πριν να κάνετε κράτηση για μια κρουαζιέρα, Οι καμπίνες για άτομα με ειδικές ανάγκες είναι περιορισμένες. ",
"we_are_social","Συμμετέχουμε στα μέσα κοινωνικής δικτύωσης",
"career_oportunities","Ευκαιρίες Καριέρας",
"food","Τρόφιμα",
"paid_services","Αμειβόμενες υπηρεσίες",
"special_moments","Ειδικές στιγμές",
"now_open","Ανοιχτό τώρα",
"search_cruises","Αναζήτηση κροαζιέρας",
"front_travel_agency_link","Έχετε κάνει κράτηση μέσω ενός ταξιδιωτικού πρακτορείου;",
"come_home_to_greece","Επιστροφή στο σπίτι... στην Ελλάδα",
